{
    "tracks": {
        "href": "https://api.spotify.com/v1/search?query=+midnight+city&type=track&offset=0&limit=1",
        "items": [
            {
                "album": {
                    "album_type": "album",
                    "artists": [
                        {
                            "external_urls": {
                                "spotify": "https://open.spotify.com/artist/63MQldklfxkjYDoUE4Tppz"
                            },
                            "href": "https://api.spotify.com/v1/artists/63MQldklfxkjYDoUE4Tppz",
                            "id": "63MQldklfxkjYDoUE4Tppz",
                            "name": "M83",
                            "type": "artist",
                            "uri": "spotify:artist:63MQldklfxkjYDoUE4Tppz"
                        }
                    ],
                    "available_markets": [
                        "CA",
                        "US"
                    ],
                    "external_urls": {
                        "spotify": "https://open.spotify.com/album/6R0ynY7RF20ofs9GJR5TXR"
                    },
                    "href": "https://api.spotify.com/v1/albums/6R0ynY7RF20ofs9GJR5TXR",
                    "id": "6R0ynY7RF20ofs9GJR5TXR",
                    "images": [
                        {
                            "height": 640,
                            "url": "https://i.scdn.co/image/ad09dc108b0e0cd6f2294904e65d5b8625a60e32",
                            "width": 640
                        },
                        {
                            "height": 300,
                            "url": "https://i.scdn.co/image/d4e0577fb5a97c75d84afcaf259c845e4b35d795",
                            "width": 300
                        },
                        {
                            "height": 64,
                            "url": "https://i.scdn.co/image/d97c00f57ea839c27509155fbc8948b29f217349",
                            "width": 64
                        }
                    ],
                    "name": "Hurry Up, We're Dreaming",
                    "release_date": "2011",
                    "release_date_precision": "year",
                    "type": "album",
                    "uri": "spotify:album:6R0ynY7RF20ofs9GJR5TXR"
                },
                "artists": [
                    {
                        "external_urls": {
                            "spotify": "https://open.spotify.com/artist/63MQldklfxkjYDoUE4Tppz"
                        },
                        "href": "https://api.spotify.com/v1/artists/63MQldklfxkjYDoUE4Tppz",
                        "id": "63MQldklfxkjYDoUE4Tppz",
                        "name": "M83",
                        "type": "artist",
                        "uri": "spotify:artist:63MQldklfxkjYDoUE4Tppz"
                    }
                ],
                "available_markets": [
                    "CA",
                    "US"
                ],
                "disc_number": 1,
                "duration_ms": 241440,
                "explicit": false,
                "external_ids": {
                    "isrc": "GB55H1100002"
                },
                "external_urls": {
                    "spotify": "https://open.spotify.com/track/1eyzqe2QqGZUmfcPZtrIyt"
                },
                "href": "https://api.spotify.com/v1/tracks/1eyzqe2QqGZUmfcPZtrIyt",
                "id": "1eyzqe2QqGZUmfcPZtrIyt",
                "name": "Midnight City",
                "popularity": 73,
                "preview_url": "https://p.scdn.co/mp3-preview/2620971cb1ef9fda9aa2d3a5ce3a74dc9be73dd2?cid=e447b8e3242a48a4b7db9bc5e49823db",
                "track_number": 2,
                "type": "track",
                "uri": "spotify:track:1eyzqe2QqGZUmfcPZtrIyt"
            }
        ],
        "limit": 1,
        "next": "https://api.spotify.com/v1/search?query=+midnight+city&type=track&offset=1&limit=1",
        "offset": 0,
        "previous": null,
        "total": 1441
    }
}